{
  "defaultSeverity": "error",
  "extends": ["tslint:latest", "tslint-react"],
  "jsRules": {},
  "rules": {
    "arrow-parens": [false],
    "quotemark": [true, "single", "avoid-escape", "jsx-double"],
    "interface-name": [true, "never-prefix"],
    "semicolon": [true, "always", "ignore-bound-class-methods"],
    "no-submodule-imports": [false],
    "jsx-no-lambda": [false],
    "jsx-no-multiline-js": [false],
    "no-bitwise": [false],
  },
  "rulesDirectory": []
}